Importing and Exploring Data in R
…
qog_text <- read_delim("data/qog_bas_cs_jan18.csv", delim = ",")

With the readr::read_csv I specified that I use the function from that specific package. The package::function is useful if there are conflicting functions in the loaded packages or you want to make your package use explicit when functions have very similar names. In this case, base R also have a read.csv function, that is a bit slower than the one in readr.

1.1.2 Excel (.xls and .xlsx)

Next we are loading the excel file. We use the readxl packages read_excel function to load the file (it does not support opening files via urls unfortunately).

qog_excel <- read_excel("data/qog_bas_cs_jan18.xlsx")

QUICK EXCERCISE: read the help of the read_excel function and import in data to a new object where only the first 5 columns are imported.

Solution:

#> # A tibble: 194 x 5
#>    ccode cname               ccodealp ccodecow ccodewb
#>    <dbl> <chr>               <chr>       <dbl>   <dbl>
#>  1     4 Afghanistan         AFG           700       4
#>  2     8 Albania             ALB           339       8
#>  3    12 Algeria             DZA           615      12
#>  4    20 Andorra             AND           232      20
#>  5    24 Angola              AGO           540      24
#>  6    28 Antigua and Barbuda ATG            58      28
#>  7    31 Azerbaijan          AZE           373      31
#>  8    32 Argentina           ARG           160      32
#>  9    36 Australia           AUS           900      36
#> 10    40 Austria             AUT           305      40
#> # ... with 184 more rows
…
